﻿{
	"Layers": [
		{
			"World": [
				{
					"$type": "Rook.Entities.Tilemap, Rook",
					"Filename": "Demo.json",
					"Position": "-300,-300"
				}
			],

			"Mechanism": [
				{
					"$type": "Rook.Entities.Interactive.Lever, Rook",
					"Position": "200,100"
				}
			]
		}
	]
}
